{
  "info": "এই file টি backend developer এর জন্য - এটা দেখায় কোন endpoint থেকে কি format এ data আসতে হবে",
  "endpoints": {
    "GET /api/storefront/v1/init": {
      "description": "Shop initialization - প্রথম page load এ call হবে",
      "response": {
        "success": true,
        "data": {
          "shop": {
            "id": "shop_12345",
            "name": "Demo Fashion Store",
            "domain": "demo.zatiq.com",
            "locale": "en-US",
            "currency": {
              "code": "USD",
              "symbol": "$",
              "format": "${amount}"
            },
            "contact": {
              "email": "support@demo.com",
              "phone": "+1234567890",
              "address": "123 Street, City"
            },
            "social": {
              "facebook": "https://facebook.com/demo",
              "instagram": "https://instagram.com/demo",
              "twitter": "https://twitter.com/demo",
              "pinterest": "https://pinterest.com/demo"
            }
          },
          "session": {
            "cartId": "cart_abc123",
            "customerId": null,
            "cartCount": 0
          }
        }
      }
    },

    "GET /api/storefront/v1/theme": {
      "description": "Active theme configuration - সব sections এবং design system",
      "response": {
        "success": true,
        "data": {
          "id": "theme_zatiq_modern_v3",
          "name": "Modern Fashion Theme",
          "version": "3.2.1",
          "globalSections": {
            "announcement": {
              "id": "global_announcement",
              "type": "announcement-bar-1",
              "enabled": true,
              "settings": {
                "message": "🎉 Black Friday Sale - Up to 70% OFF!",
                "icon_left": "🔥",
                "icon_right": "🔥",
                "gradient_start": "#FF6B6B",
                "gradient_end": "#4ECDC4",
                "text_color": "#FFFFFF"
              }
            },
            "header": {
              "id": "global_header",
              "type": "navbar-1",
              "enabled": true,
              "settings": {
                "logo": "/logo.svg",
                "searchPlaceholder": "Search products...",
                "show_search": true,
                "show_cart": true,
                "background_color": "#ffffff"
              },
              "blocks": [
                {
                  "id": "menu_women",
                  "type": "menu_item",
                  "settings": {
                    "title": "Women",
                    "url": "/collections/womens"
                  }
                },
                {
                  "id": "menu_men",
                  "type": "menu_item",
                  "settings": {
                    "title": "Men",
                    "url": "/collections/mens"
                  }
                }
              ]
            },
            "footer": {
              "id": "global_footer",
              "type": "footer-1",
              "enabled": true,
              "settings": {
                "background_color": "#1F2937",
                "text_color": "#F9FAFB",
                "copyright_text": "© 2024 Demo Store"
              }
            }
          },
          "templates": {
            "index": {
              "name": "Homepage",
              "layout": "default",
              "sections": [
                {
                  "id": "homepage_hero",
                  "type": "hero-1",
                  "enabled": true,
                  "settings": {
                    "image": "https://images.unsplash.com/photo-1483985988355-763728e1935b",
                    "headline": "New Arrivals Are Here",
                    "button_text": "Shop Now",
                    "button_link": "/collections/new"
                  }
                }
              ]
            }
          },
          "designSystem": {
            "colors": {
              "primary": "#2563eb",
              "secondary": "#1f2937",
              "accent": "#f59e0b"
            },
            "fonts": {
              "heading": "Poppins, sans-serif",
              "body": "Inter, sans-serif"
            }
          }
        }
      }
    },

    "GET /api/storefront/v1/products": {
      "description": "Product list with filtering and pagination",
      "queryParameters": {
        "page": "number (default: 1)",
        "limit": "number (default: 20)",
        "collection": "string (optional)",
        "sort": "string (optional: 'price_asc', 'price_desc', 'newest')"
      },
      "response": {
        "success": true,
        "data": {
          "products": [
            {
              "id": "prod_001",
              "title": "Premium Cotton T-Shirt",
              "handle": "premium-cotton-tshirt",
              "description": "High quality 100% cotton t-shirt",
              "vendor": "Brand Name",
              "price": 29.99,
              "compareAtPrice": 39.99,
              "available": true,
              "images": [
                {
                  "url": "https://images.unsplash.com/photo-1521572163474-6864f9cf17ab",
                  "alt": "Premium Cotton T-Shirt",
                  "width": 800,
                  "height": 1000
                }
              ],
              "variants": [
                {
                  "id": "var_001",
                  "title": "Small / Black",
                  "price": 29.99,
                  "available": true,
                  "sku": "TSH-BLK-SM",
                  "options": {
                    "size": "Small",
                    "color": "Black"
                  }
                },
                {
                  "id": "var_002",
                  "title": "Medium / Black",
                  "price": 29.99,
                  "available": true,
                  "sku": "TSH-BLK-MD",
                  "options": {
                    "size": "Medium",
                    "color": "Black"
                  }
                }
              ],
              "options": [
                {
                  "name": "Size",
                  "values": ["Small", "Medium", "Large", "XL"]
                },
                {
                  "name": "Color",
                  "values": ["Black", "White", "Navy", "Gray"]
                }
              ],
              "tags": ["new", "sale", "featured"],
              "createdAt": "2024-01-15T10:00:00Z",
              "updatedAt": "2024-01-20T15:30:00Z"
            }
          ],
          "pagination": {
            "total": 100,
            "page": 1,
            "limit": 20,
            "totalPages": 5,
            "hasNext": true,
            "hasPrev": false
          }
        }
      }
    },

    "GET /api/storefront/v1/products/:handle": {
      "description": "Single product details",
      "example": "/api/storefront/v1/products/premium-cotton-tshirt",
      "response": {
        "success": true,
        "data": {
          "id": "prod_001",
          "title": "Premium Cotton T-Shirt",
          "handle": "premium-cotton-tshirt",
          "description": "High quality 100% cotton t-shirt with premium finishing",
          "descriptionHtml": "<p>High quality <strong>100% cotton</strong> t-shirt</p>",
          "vendor": "Brand Name",
          "price": 29.99,
          "compareAtPrice": 39.99,
          "available": true,
          "images": [
            {
              "url": "https://example.com/image1.jpg",
              "alt": "Product Image"
            }
          ],
          "variants": [
            {
              "id": "var_001",
              "title": "Small / Black",
              "price": 29.99,
              "compareAtPrice": 39.99,
              "available": true,
              "inventory": 10,
              "sku": "TSH-BLK-SM",
              "barcode": "123456789",
              "weight": 200,
              "weightUnit": "g",
              "options": {
                "size": "Small",
                "color": "Black"
              }
            }
          ],
          "options": [
            {
              "name": "Size",
              "position": 1,
              "values": ["Small", "Medium", "Large", "XL"]
            },
            {
              "name": "Color",
              "position": 2,
              "values": ["Black", "White", "Navy"]
            }
          ],
          "tags": ["new", "sale"],
          "collections": ["mens", "tshirts"],
          "metafields": {},
          "seo": {
            "title": "Premium Cotton T-Shirt - Brand Name",
            "description": "Buy premium quality cotton t-shirt",
            "keywords": ["t-shirt", "cotton", "premium"]
          }
        }
      }
    },

    "GET /api/storefront/v1/products/featured": {
      "description": "Featured products (homepage এ show হবে)",
      "queryParameters": {
        "limit": "number (default: 8)"
      },
      "response": {
        "success": true,
        "data": [
          {
            "id": "prod_001",
            "title": "Product 1",
            "price": 29.99,
            "images": [{ "url": "..." }],
            "available": true
          }
        ]
      }
    },

    "GET /api/storefront/v1/collections": {
      "description": "All collections list",
      "response": {
        "success": true,
        "data": [
          {
            "id": "col_001",
            "title": "Women's Collection",
            "handle": "womens",
            "description": "Explore our women's collection",
            "image": "https://example.com/collection.jpg",
            "productCount": 45
          }
        ]
      }
    },

    "GET /api/storefront/v1/collections/:handle": {
      "description": "Single collection with products",
      "example": "/api/storefront/v1/collections/womens",
      "response": {
        "success": true,
        "data": {
          "collection": {
            "id": "col_001",
            "title": "Women's Collection",
            "handle": "womens",
            "description": "Explore our women's collection",
            "image": "https://example.com/collection.jpg"
          },
          "products": [
            {
              "id": "prod_001",
              "title": "Product 1",
              "price": 29.99,
              "images": [{ "url": "..." }]
            }
          ],
          "pagination": {
            "total": 45,
            "page": 1,
            "limit": 20
          }
        }
      }
    },

    "GET /api/storefront/v1/search": {
      "description": "Search products",
      "queryParameters": {
        "q": "search query (required)",
        "limit": "number (optional)"
      },
      "example": "/api/storefront/v1/search?q=tshirt",
      "response": {
        "success": true,
        "data": [
          {
            "id": "prod_001",
            "title": "Premium T-Shirt",
            "price": 29.99
          }
        ]
      }
    },

    "POST /api/storefront/v1/cart": {
      "description": "Create new cart",
      "response": {
        "success": true,
        "data": {
          "id": "cart_abc123",
          "token": "cart_token_xyz789",
          "items": [],
          "itemCount": 0,
          "subtotal": 0,
          "total": 0,
          "currency": "USD"
        }
      }
    },

    "GET /api/storefront/v1/cart": {
      "description": "Get current cart",
      "headers": {
        "X-Cart-Token": "cart_token_xyz789"
      },
      "response": {
        "success": true,
        "data": {
          "id": "cart_abc123",
          "items": [
            {
              "id": "item_001",
              "variantId": "var_001",
              "productId": "prod_001",
              "productTitle": "Premium T-Shirt",
              "variantTitle": "Small / Black",
              "price": 29.99,
              "quantity": 2,
              "lineTotal": 59.98,
              "image": "https://example.com/image.jpg"
            }
          ],
          "itemCount": 2,
          "subtotal": 59.98,
          "tax": 5.99,
          "shipping": 0,
          "total": 65.97,
          "currency": "USD"
        }
      }
    },

    "POST /api/storefront/v1/cart/add": {
      "description": "Add item to cart",
      "headers": {
        "X-Cart-Token": "cart_token_xyz789",
        "Content-Type": "application/json"
      },
      "requestBody": {
        "variantId": "var_001",
        "quantity": 1
      },
      "response": {
        "success": true,
        "data": {
          "cart": {
            "id": "cart_abc123",
            "items": [
              {
                "id": "item_001",
                "variantId": "var_001",
                "quantity": 1,
                "price": 29.99
              }
            ],
            "itemCount": 1,
            "total": 29.99
          }
        }
      }
    },

    "PUT /api/storefront/v1/cart/update": {
      "description": "Update cart item quantity",
      "headers": {
        "X-Cart-Token": "cart_token_xyz789",
        "Content-Type": "application/json"
      },
      "requestBody": {
        "lineItemId": "item_001",
        "quantity": 3
      },
      "response": {
        "success": true,
        "data": {
          "cart": {
            "items": [],
            "total": 89.97
          }
        }
      }
    },

    "DELETE /api/storefront/v1/cart/remove": {
      "description": "Remove item from cart",
      "headers": {
        "X-Cart-Token": "cart_token_xyz789",
        "Content-Type": "application/json"
      },
      "requestBody": {
        "lineItemId": "item_001"
      },
      "response": {
        "success": true,
        "data": {
          "cart": {
            "items": [],
            "itemCount": 0,
            "total": 0
          }
        }
      }
    }
  },

  "errorResponses": {
    "example": {
      "success": false,
      "message": "Product not found",
      "code": "PRODUCT_NOT_FOUND",
      "statusCode": 404
    },
    "validationError": {
      "success": false,
      "message": "Validation failed",
      "code": "VALIDATION_ERROR",
      "errors": [
        {
          "field": "quantity",
          "message": "Quantity must be greater than 0"
        }
      ]
    }
  },

  "notes": {
    "authentication": "সব request এ X-Shop-Id header লাগবে",
    "cartToken": "Cart operations এর জন্য X-Cart-Token header লাগবে",
    "cors": "CORS enable করতে হবে frontend domain এর জন্য",
    "responseFormat": "সব response এ { success: boolean, data: any } format থাকতে হবে",
    "pagination": "যেখানে list data আছে সেখানে pagination object লাগবে"
  }
}
